T3-T10-T14-T19-T25-T21-T11-T1-T8-
T4-T6-T14-T19-T25-T21-T11-T1-T8-
T5-T7-T14-T19-T25-T21-T11-T1-T8-
T3-T10-T13-T17-T23-T20-T24-T18-T15-T21-T11-T1-T8-
T4-T6-T13-T17-T23-T20-T24-T18-T15-T21-T11-T1-T8-
T5-T7-T13-T17-T23-T20-T24-T18-T15-T21-T11-T1-T8-
T3-T10-T14-T19-T25-T22-T12-T2-T9-
T4-T6-T14-T19-T25-T22-T12-T2-T9-
T5-T7-T14-T19-T25-T22-T12-T2-T9-
T3-T10-T13-T17-T23-T20-T24-T18-T15-T22-T12-T2-T9-
T4-T6-T13-T17-T23-T20-T24-T18-T15-T22-T12-T2-T9-
T5-T7-T13-T17-T23-T20-T24-T18-T15-T22-T12-T2-T9-
T0-T16-
