0 16
1 3 8 10 11 14 19 21 25
1 3 8 10 11 13 15 17 18 20 21 23 24
2 3 9 10 12 13 15 17 18 20 22 23 24
1 8 11 14 19 21 25 4 6
1 8 11 13 15 17 18 20 21 23 24 4 6
2 9 12 14 19 22 25 4 6
2 9 12 14 19 22 25 5 7
2 9 12 13 15 17 18 20 22 23 24 4 6
1 8 11 14 19 21 25 5 7
1 8 11 13 15 17 18 20 21 23 24 4 6
2 9 12 13 15 17 18 20 22 23 24 4 6